NUISANCE_PARAMETERS
norm_el  1 +0 -0
norm_had  1.49663 +0.111681 -0.111681
norm_mu  1 +0 -0
norm_tau  1 +0 -0


CORRELATION_MATRIX
4   4
0   0   0   0   
0   0   1   0   
0   0   0   0   
0   0   0   0   


NLL
-11.7255

