 |       | #it{e#rightarrow#tau}      | #it{h#rightarrow#tau}      | #it{#mu#rightarrow#tau}      | #it{#tau} |
 | #it{el}(#it{#tau}) | 0 / 0 | 0 / 0 | 0 / 0 | 0 / 0 |
 | #it{had}(#it{#tau}) | 0 / 0 | 0.0578666 / -0.0578666 | 0 / 0 | 0 / 0 |
 | #it{#mu}(#it{#tau}) | 0 / 0 | 0 / 0 | 0 / 0 | 0 / 0 |
 | #it{#tau} | 0 / 0 | 0 / 0 | 0 / 0 | 0 / 0 |
