NUISANCE_PARAMETERS
norm_el  1 +0 -0
norm_had  0.972847 +0.0947363 -0.0947363
norm_mu  1 +0 -0
norm_tau  1 +0 -0


CORRELATION_MATRIX
4   4
0   0   0   0   
0   0   1   0   
0   0   0   0   
0   0   0   0   


NLL
-0.0403854

