NUISANCE_PARAMETERS
norm_el  1 +0 -0
norm_had  1.5927 +0.0385519 -0.0385519
norm_mu  1 +0 -0
norm_tau  1 +0 -0


CORRELATION_MATRIX
4   4
0   0   0   0   
0   0   1   0   
0   0   0   0   
0   0   0   0   


NLL
-148.973

