NUISANCE_PARAMETERS
norm_el  1 +0 -0
norm_had  1.1812 +0.102359 -0.102359
norm_mu  1 +0 -0
norm_tau  1 +0 -0


CORRELATION_MATRIX
4   4
0   0   0   0   
0   0   1   0   
0   0   0   0   
0   0   0   0   


NLL
-1.66658

